{
   "endpoint_id":111111,
   "name":"Special Endpoint",
   "description":"",
   "sequential_status":1,
   "deletable_status":0,
   "fields":[
      {
         "type":"CHECKBOX",
         "label":"Name"
      }
   ],
   "signature_type":"BUTTON",
   "allow_additional_accesses_status":0,
   "given_accesses":[
      {
         "group":{
            "id":555555,
            "name":"CEO"
         },
         "access_order":1
      }
   ],
   "active_tasks":4
}
